[{
		"group": "PUBLIC_SCULPTURE",
		"sparql": "SELECT ?q ?qLabel ?adminLabel WHERE { SERVICE wikibase:label { bd:serviceParam wikibase:language '[AUTO_LANGUAGE],cz,sv,nl,es,de,fr,en' } ?q (wdt:P31/wdt:P279*) wd:Q860861. ?q wdt:P131 ?admin. MINUS { ?q wdt:P18 ?image } }",
		"commons": true,
		"flickr": false,
		"exclude_files": "/\\.(pdf)$/i",
		"parts": [{
				"var": "qLabel",
				"quote": true,
				"required": true
			},
			{
				"var": "adminLabel",
				"quote": false,
				"required": true
			}
		]
	},

	{
		"group": "SH_OBJECT",
		"sparql": "SELECT ?q ?adminLabel ?street { ?q wdt:P6102 [] ; wdt:P131 ?admin ; wdt:P969 ?street MINUS { ?q wdt:P18 [] } SERVICE wikibase:label { bd:serviceParam wikibase:language 'de' } }",
		"commons": true,
		"flickr": false,
		"exclude_files": "/\\.(pdf)$/i",
		"parts": [{
				"var": "street",
				"quote": true,
				"required": true
			},
			{
				"var": "adminLabel",
				"quote": false,
				"required": true
			}
		]
	},

	{
		"group": "DENKMAL_SACHSEN",
		"sparql": "SELECT ?q ?adminLabel ?street { ?q wdt:P1708 [] ; wdt:P131 ?admin ; wdt:P969 ?street MINUS { ?q wdt:P18 [] } SERVICE wikibase:label { bd:serviceParam wikibase:language 'de' } }",
		"commons": true,
		"flickr": false,
		"exclude_files": "/\\.(pdf)$/i",
		"parts": [{
				"var": "street",
				"quote": true,
				"required": true
			},
			{
				"var": "adminLabel",
				"quote": false,
				"required": true
			}
		]
	},

	{
		"group": "DENKMAL_BAYERN",
		"sparql": "SELECT ?q ?v ('Monument Bayern -pdf' as ?hardcoded) { ?q wdt:P4244 ?v MINUS { ?q wdt:P18 [] } }",
		"commons": true,
		"flickr": false,
		"exclude_files": "/\\.(pdf)$/i",
		"parts": [{
				"var": "v",
				"quote": false,
				"required": true
			},
			{
				"var": "hardcoded",
				"quote": false,
				"required": true
			}
		]
	},

	{
		"group": "DENKMAL_BAYERN",
		"sparql": "SELECT ?q ?adminLabel ?street { ?q wdt:P4244 [] ; wdt:P131 ?admin ; wdt:P969 ?street MINUS { ?q wdt:P18 [] } SERVICE wikibase:label { bd:serviceParam wikibase:language 'de' } }",
		"commons": true,
		"flickr": false,
		"exclude_files": "/\\.(pdf)$/i",
		"parts": [{
				"var": "street",
				"quote": true,
				"required": true
			},
			{
				"var": "adminLabel",
				"quote": false,
				"required": true
			}
		]
	},

	{
		"group": "CHURCH",
		"sparql": "SELECT ?q ?qLabel ?adminLabel { ?q wdt:P31 wd:Q16970 ; wdt:P131 ?admin . MINUS { ?q wdt:P18 [] } SERVICE wikibase:label { bd:serviceParam wikibase:language '[AUTO_LANGUAGE],cz,sv,nl,es,de,fr,en'. } } LIMIT 20000",
		"commons": true,
		"flickr": false,
		"exclude_files": "/\\.(pdf)$/i",
		"parts": [{
				"var": "qLabel",
				"quote": true,
				"required": true
			},
			{
				"var": "adminLabel",
				"quote": false,
				"required": true
			}
		]
	},

	{
		"group": "MEMORIAL",
		"sparql": "SELECT ?q ?qLabel ?adminLabel WHERE { SERVICE wikibase:label { bd:serviceParam wikibase:language '[AUTO_LANGUAGE],cz,sv,nl,es,de,fr,en' } ?q (wdt:P31/wdt:P279*) wd:Q5003624. ?q wdt:P131 ?admin . MINUS { ?q wdt:P18 ?image } }",
		"commons": true,
		"flickr": false,
		"exclude_files": "/\\.(pdf)$/i",
		"parts": [{
				"var": "qLabel",
				"quote": true,
				"required": true
			},
			{
				"var": "adminLabel",
				"quote": false,
				"required": true
			}
		]
	},

	{
		"group": "MANUSCRIPT",
		"sparql": "SELECT ?q ?qLabel WHERE { SERVICE wikibase:label { bd:serviceParam wikibase:language '[AUTO_LANGUAGE],cz,sv,nl,es,de,fr,en' } ?q (wdt:P31/wdt:P279*) wd:Q87167 MINUS { ?q wdt:P18 ?image } }",
		"commons": true,
		"exclude_files": "/\\.(pdf)$/i",
		"parts": [{
				"var": "qLabel",
				"quote": true,
				"required": true
			}
		]
	},

	{
		"group": "BLACK_LUNCH_TABLE",
		"sparql": "SELECT ?q ?qLabel { ?q wdt:P5008 wd:Q28781198 MINUS { ?q wdt:P18 ?image } SERVICE wikibase:label { bd:serviceParam wikibase:language '[AUTO_LANGUAGE],en' } }",
		"commons": true,
		"exclude_files": "/\\.(pdf)$/i",
		"parts": [{
				"var": "qLabel",
				"quote": true,
				"required": true
			}
		]
	},

	{
		"group": "MUSICAL_INSTRUMENT",
		"sparql": "SELECT ?q ?qLabel WHERE { SERVICE wikibase:label { bd:serviceParam wikibase:language '[AUTO_LANGUAGE],cz,sv,nl,es,de,fr,en'. } ?q wdt:P279* wd:Q34379.  MINUS { ?q wdt:P18 ?image }}",
		"commons": true,
		"flickr": true,
		"exclude_files": "/\\.(pdf)$/i",
		"parts": [{
				"var": "qLabel",
				"quote": true,
				"required": true
			}
		]
	},

	{
		"group": "BUILDINGS",
		"sparql": "SELECT ?q ?qLabel ?adminLabel WHERE { SERVICE wikibase:label { bd:serviceParam wikibase:language '[AUTO_LANGUAGE],cz,sv,nl,es,de,fr,en' } ?q (wdt:P31/wdt:P279*) wd:Q41176 ; wdt:P131 ?admin ; wdt:P571 []. MINUS { ?q wdt:P18 ?image } }",
		"commons": true,
		"flickr": false,
		"exclude_files": "/\\.(pdf)$/i",
		"parts": [{
				"var": "qLabel",
				"quote": true,
				"required": true
			},
			{
				"var": "adminLabel",
				"quote": false,
				"required": true
			}
		]
	}
]